<svg xmlns="http://www.w3.org/2000/svg" width="38" height="38" viewBox="0 0 38 38">
    <path fill="#3B3F66" fill-rule="nonzero" d="M16.984 26.834a.568.568 0 0 1-.408.166.568.568 0 0 1-.407-.166.559.559 0 0 1 0-.8L23.336 19l-7.167-7.034a.559.559 0 0 1 0-.8c.225-.221.59-.221.815 0l7.575 7.434c.224.22.224.58 0 .8l-7.575 7.434z"/>
</svg>
