<svg xmlns="http://www.w3.org/2000/svg" width="24" height="16" viewBox="0 0 24 16">
    <g fill="#FFF" fill-rule="nonzero">
        <path d="M23.03 7H.97C.433 7 0 7.448 0 8s.434 1 .97 1h22.06c.536 0 .97-.448.97-1s-.434-1-.97-1zM23.03.02H.97c-.536 0-.97.448-.97 1 0 .553.434 1 .97 1h22.06c.536 0 .97-.447.97-1 0-.552-.434-1-.97-1zM23.03 14H.97c-.536 0-.97.448-.97 1s.434 1 .97 1h22.06c.536 0 .97-.448.97-1s-.434-1-.97-1z"/>
    </g>
</svg>
